ID1: OK : arp[0] = 0
ID2: OK : atalk[0] = 0. stderr output: 'Caper v0.7-dev: :1:7: syntax error'
ID3: OK : carp[0] = 0. stderr output: 'Caper v0.7-dev: :1:6: syntax error'
ID4: FAIL (decnet[0] = 0) : Expected '@: False :@' but got ''. stderr output: 'Fatal error: exception Failure("Unsupported protocol: DECNET")'
ID5: OK : ether[0] = 0
ID6: FAIL (fddi[0] = 0) : Expected '@: False :@' but got ''. stderr output: 'Fatal error: exception Failure("Unsupported protocol: FDDI")'
ID7: OK : icmp[0] = 0
ID8: OK : icmp6[0] = 0
ID9: OK : igmp[0] = 0. stderr output: 'Caper v0.7-dev: :1:6: syntax error'
ID10: OK : igrp[0] = 0. stderr output: 'Caper v0.7-dev: :1:6: syntax error'
ID11: OK : ip[0] = 0
ID12: OK : ip6[0] = 0
ID13: OK : lat[0] = 0. stderr output: 'Caper v0.7-dev: :1:5: syntax error'
ID14: OK : link[0] = 0. stderr output: 'Caper v0.7-dev: :1:6: syntax error'
ID15: OK : mopdl[0] = 0. stderr output: 'Caper v0.7-dev: :1:7: syntax error'
ID16: OK : moprc[0] = 0. stderr output: 'Caper v0.7-dev: :1:7: syntax error'
ID17: OK : pim[0] = 0. stderr output: 'Caper v0.7-dev: :1:5: syntax error'
ID18: OK : ppp[0] = 0. stderr output: 'Caper v0.7-dev: :1:5: syntax error'
ID19: OK : radio[0] = 0. stderr output: 'Caper v0.7-dev: :1:7: syntax error'
ID20: FAIL (rarp[0] = 0) : Expected '@: False :@' but got ''. stderr output: 'Fatal error: exception Failure("Caper v0.7-dev: Failed well-formedness check")'
ID21: OK : sca[0] = 0. stderr output: 'Caper v0.7-dev: :1:5: syntax error'
ID22: FAIL (sctp[0] = 0) : Expected '@: False :@' but got ''. stderr output: 'Fatal error: exception Failure("Caper v0.7-dev: Failed well-formedness check")'
ID23: OK : slip[0] = 0. stderr output: 'Caper v0.7-dev: :1:6: syntax error'
ID24: OK : tcp[0] = 0
ID25: OK : tcp[0:2] = 0
ID26: OK : tcp[0:2] == 0
ID27: FAIL (tr[0] = 0) : Expected '@: False :@' but got ''. stderr output: 'Fatal error: exception Failure("Unsupported protocol: TR")'
ID28: OK : udp[0] = 0
ID31: OK : tcp[tcpflags] = tcp-fin
ID32: OK : tcp[tcpflags] = tcp-syn
ID33: OK : tcp[tcpflags] = tcp-rst
ID34: OK : tcp[tcpflags] = tcp-push
ID35: OK : tcp[tcpflags] = tcp-ack
ID36: OK : tcp[tcpflags] = tcp-urg
ID37: FAIL (tcp[tcpflags] = tcp-ece) : Expected '@: False :@' but got ''. stderr output: 'Fatal error: exception Failure("Caper v0.7-dev: Unrecognised name: tcp-ece")'
ID38: FAIL (tcp[tcpflags] = tcp-cwr) : Expected '@: False :@' but got ''. stderr output: 'Fatal error: exception Failure("Caper v0.7-dev: Unrecognised name: tcp-cwr")'
ID39: OK : icmp[icmptype] = 0
ID40: OK : icmp[icmpcode] = 0
ID41: OK : icmp[icmptype] = icmp-echoreply
ID42: OK : icmp[icmptype] = icmp-unreach
ID43: OK : icmp[icmptype] = icmp-sourcequench
ID44: OK : icmp[icmptype] = icmp-redirect
ID45: OK : icmp[icmptype] = icmp-echo
ID46: OK : icmp[icmptype] = icmp-routeradvert
ID47: OK : icmp[icmptype] = icmp-routersolicit
ID48: OK : icmp[icmptype] = icmp-timxceed
ID49: OK : icmp[icmptype] = icmp-paramprob
ID50: OK : icmp[icmptype] = icmp-tstamp
ID51: OK : icmp[icmptype] = icmp-tstampreply
ID52: OK : icmp[icmptype] = icmp-ireq
ID53: OK : icmp[icmptype] = icmp-ireqreply
ID54: OK : icmp[icmptype] = icmp-maskreq
ID55: OK : icmp[icmptype] = icmp-maskreply
ID56: OK : icmp6[icmp6type] = 0
ID57: OK : icmp6[icmp6code] = 0
ID58: OK : icmp6[icmp6type] = icmp6-destinationunreach
ID59: OK : icmp6[icmp6type] = icmp6-packettoobig
ID60: OK : icmp6[icmp6type] = icmp6-timeexceeded
ID61: OK : icmp6[icmp6type] = icmp6-parameterproblem
ID62: OK : icmp6[icmp6type] = icmp6-echo
ID63: OK : icmp6[icmp6type] = icmp6-echoreply
ID64: OK : icmp6[icmp6type] = icmp6-multicastlistenerquery
ID65: OK : icmp6[icmp6type] = icmp6-multicastlistenerreportv1
ID66: OK : icmp6[icmp6type] = icmp6-multicastlistenerdone
ID67: OK : icmp6[icmp6type] = icmp6-routersolicit
ID68: OK : icmp6[icmp6type] = icmp6-routeradvert
ID69: OK : icmp6[icmp6type] = icmp6-neighborsolicit
ID70: OK : icmp6[icmp6type] = icmp6-neighboradvert
ID71: OK : icmp6[icmp6type] = icmp6-redirect
ID72: OK : icmp6[icmp6type] = icmp6-routerrenum
ID73: OK : icmp6[icmp6type] = icmp6-nodeinformationquery
ID74: OK : icmp6[icmp6type] = icmp6-nodeinformationresponse
ID75: OK : icmp6[icmp6type] = icmp6-ineighbordiscoverysolicit
ID76: OK : icmp6[icmp6type] = icmp6-ineighbordiscoveryadvert
ID77: OK : icmp6[icmp6type] = icmp6-multicastlistenerreportv2
ID78: OK : icmp6[icmp6type] = icmp6-homeagentdiscoveryrequest
ID79: OK : icmp6[icmp6type] = icmp6-homeagentdiscoveryreply
ID80: OK : icmp6[icmp6type] = icmp6-mobileprefixsolicit
ID81: OK : icmp6[icmp6type] = icmp6-mobileprefixadvert
ID82: OK : icmp6[icmp6type] = icmp6-certpathsolicit
ID83: OK : icmp6[icmp6type] = icmp6-certpathadvert
ID84: OK : icmp6[icmp6type] = icmp6-multicastrouteradvert
ID85: OK : icmp6[icmp6type] = icmp6-multicastroutersolicit
ID86: OK : icmp6[icmp6type] = icmp6-multicastrouterterm
ID87: OK : port 67 and 68
ID88: OK : port 67 and port 68
ID89: OK : udp port 67 and 68
ID90: OK : udp port 67 and port 68
ID91: OK : udp port 67 and udp port 68
ID92: OK : tcp dst port ftp or ftp-data or domain
ID93: OK : tcp dst port ftp or tcp dst port ftp-data or tcp dst port domain
ID94: OK : ip and tcp dst port 80
ID95: OK : ip6 and tcp dst port 80
ID96: OK : ip[0] + tcp[1] = 1
ID97: OK : host tcpdump.org
ID98: OK : icmp and ip host 127.0.0.1
ID99: OK : ip host 127.0.0.1 and icmp
ID100: OK : ip6 net 2000::/3
ID101: OK : ip6 host fe80::
ID102: OK : ip6 host ff02::1
ID103: OK : ip && (tcp or udp)
ID104: OK : ip and port 67 and 68
ID105: OK : tcp[0] = 0 && ((ether proto \ip && ip proto \tcp) || (ether proto \ip6 && ip6 proto \tcp))
ID106: OK : ip
ID107: OK : tcp or udp
ID108: OK : icmp or udp port 53
ID109: OK : icmp or udp port 53 or bootpc
ID110: OK : not tcp
ID111: OK : not port 67
ID112: OK : not (udp or tcp)
ID113: OK : udp and not (udp[9:1] >= 0x20 and udp[9:1] <= 0x7E)
ID114: OK : not ip
ID115: OK : not (ip or ip6)
ID116: OK : not sctp
ID117: OK : not arp
ID118: OK : not ((ip[2 : 2] - (ip[0] & 0xf) << 2) - (tcp[12] & 0xf0) >> 2 != 0)
ID119: OK : tcp or not tcp
ID120: OK : not (tcp or not tcp)
