U1: OK : arp[0] = 0
U2: FAIL (atalk[0] = 0) : Expected 'atalk[0] = 0' but got '@: False :@'. stderr output: 'Caper v0.7-dev: :1:7: syntax error'
U3: FAIL (carp[0] = 0) : Expected 'carp[0] = 0' but got '@: False :@'. stderr output: 'Caper v0.7-dev: :1:6: syntax error'
U4: FAIL (decnet[0] = 0) : Expected 'decnet[0] = 0' but got ''. stderr output: 'Fatal error: exception Failure("Unsupported protocol: DECNET")'
U5: OK : ether[0] = 0
U6: FAIL (fddi[0] = 0) : Expected 'fddi[0] = 0' but got ''. stderr output: 'Fatal error: exception Failure("Unsupported protocol: FDDI")'
U7: OK : icmp[0] = 0
U8: OK : icmp6[0] = 0
U9: FAIL (igmp[0] = 0) : Expected 'igrp[0] = 0' but got '@: False :@'. stderr output: 'Caper v0.7-dev: :1:6: syntax error'
U10: FAIL (igrp[0] = 0) : Expected 'igrp[0] = 0' but got '@: False :@'. stderr output: 'Caper v0.7-dev: :1:6: syntax error'
U11: OK : ip[0] = 0
U12: OK : ip6[0] = 0
U13: FAIL (lat[0] = 0) : Expected 'lat[0] = 0' but got '@: False :@'. stderr output: 'Caper v0.7-dev: :1:5: syntax error'
U14: FAIL (link[0] = 0) : Expected 'link[0] = 0' but got '@: False :@'. stderr output: 'Caper v0.7-dev: :1:6: syntax error'
U15: FAIL (mopdl[0] = 0) : Expected 'mopdl[0] = 0' but got '@: False :@'. stderr output: 'Caper v0.7-dev: :1:7: syntax error'
U16: FAIL (moprc[0] = 0) : Expected 'moprc[0] = 0' but got '@: False :@'. stderr output: 'Caper v0.7-dev: :1:7: syntax error'
U17: FAIL (pim[0] = 0) : Expected 'pim[0] = 0' but got '@: False :@'. stderr output: 'Caper v0.7-dev: :1:5: syntax error'
U18: FAIL (ppp[0] = 0) : Expected 'ppp[0] = 0' but got '@: False :@'. stderr output: 'Caper v0.7-dev: :1:5: syntax error'
U19: FAIL (radio[0] = 0) : Expected 'radio[0] = 0' but got '@: False :@'. stderr output: 'Caper v0.7-dev: :1:7: syntax error'
U20: FAIL (rarp[0] = 0) : Expected 'rarp[0] = 0' but got ''. stderr output: 'Fatal error: exception Failure("Caper v0.7-dev: Failed well-formedness check")'
U21: FAIL (sca[0] = 0) : Expected 'sca[0] = 0' but got '@: False :@'. stderr output: 'Caper v0.7-dev: :1:5: syntax error'
U22: FAIL (sctp[0] = 0) : Expected 'sctp[0] = 0' but got ''. stderr output: 'Fatal error: exception Failure("Caper v0.7-dev: Failed well-formedness check")'
U23: FAIL (slip[0] = 0) : Expected 'slip[0] = 0' but got '@: False :@'. stderr output: 'Caper v0.7-dev: :1:6: syntax error'
U24: FAIL (tcp[0] = 0) : Expected '((ether proto \ip && ip proto \tcp) || (ether proto \ip6 && ip6 proto \tcp)) && tcp[0] = 0' but got '(ether proto \ip && ip proto \tcp && tcp[0] = 0) || (ether proto \ip6 && ip6 proto \tcp && tcp[0] = 0)'
U25: FAIL (tcp[0:2] = 0) : Expected '((ether proto \ip && ip proto \tcp) || (ether proto \ip6 && ip6 proto \tcp)) && tcp[0 : 2] = 0' but got '(ether proto \ip && ip proto \tcp && tcp[0 : 2] = 0) || (ether proto \ip6 && ip6 proto \tcp && tcp[0 : 2] = 0)'
U26: FAIL (tcp[0:2] == 0) : Expected '((ether proto \ip && ip proto \tcp) || (ether proto \ip6 && ip6 proto \tcp)) && tcp[0 : 2] = 0' but got '(ether proto \ip && ip proto \tcp && tcp[0 : 2] = 0) || (ether proto \ip6 && ip6 proto \tcp && tcp[0 : 2] = 0)'
U27: FAIL (tr[0] = 0) : Expected 'tr[0] = 0' but got ''. stderr output: 'Fatal error: exception Failure("Unsupported protocol: TR")'
U28: FAIL (udp[0] = 0) : Expected '((ether proto \ip && ip proto \udp) || (ether proto \ip6 && ip6 proto \udp)) && udp[0] = 0' but got '(ether proto \ip && ip proto \udp && udp[0] = 0) || (ether proto \ip6 && ip6 proto \udp && udp[0] = 0)'
U31: OK : tcp[tcpflags] = tcp-fin
U32: OK : tcp[tcpflags] = tcp-syn
U33: OK : tcp[tcpflags] = tcp-rst
U34: OK : tcp[tcpflags] = tcp-push
U35: OK : tcp[tcpflags] = tcp-ack
U36: OK : tcp[tcpflags] = tcp-urg
U37: FAIL (tcp[tcpflags] = tcp-ece) : Expected '(ether proto \ip && ip proto \tcp && tcp[tcpflags] = tcp-ece) || (ether proto \ip6 && ip6 proto \tcp && tcp[tcpflags] = tcp-ece)' but got ''. stderr output: 'Fatal error: exception Failure("Caper v0.7-dev: Unrecognised name: tcp-ece")'
U38: FAIL (tcp[tcpflags] = tcp-cwr) : Expected '(ether proto \ip && ip proto \tcp && tcp[tcpflags] = tcp-cwr) || (ether proto \ip6 && ip6 proto \tcp && tcp[tcpflags] = tcp-cwr)' but got ''. stderr output: 'Fatal error: exception Failure("Caper v0.7-dev: Unrecognised name: tcp-cwr")'
U39: OK : icmp[icmptype] = 0
U40: OK : icmp[icmpcode] = 0
U41: OK : icmp[icmptype] = icmp-echoreply
U42: OK : icmp[icmptype] = icmp-unreach
U43: OK : icmp[icmptype] = icmp-sourcequench
U44: OK : icmp[icmptype] = icmp-redirect
U45: OK : icmp[icmptype] = icmp-echo
U46: OK : icmp[icmptype] = icmp-routeradvert
U47: OK : icmp[icmptype] = icmp-routersolicit
U48: OK : icmp[icmptype] = icmp-timxceed
U49: OK : icmp[icmptype] = icmp-paramprob
U50: OK : icmp[icmptype] = icmp-tstamp
U51: OK : icmp[icmptype] = icmp-tstampreply
U52: OK : icmp[icmptype] = icmp-ireq
U53: OK : icmp[icmptype] = icmp-ireqreply
U54: OK : icmp[icmptype] = icmp-maskreq
U55: OK : icmp[icmptype] = icmp-maskreply
U56: OK : icmp6[icmp6type] = 0
U57: OK : icmp6[icmp6code] = 0
U58: OK : icmp6[icmp6type] = icmp6-destinationunreach
U59: OK : icmp6[icmp6type] = icmp6-packettoobig
U60: OK : icmp6[icmp6type] = icmp6-timeexceeded
U61: OK : icmp6[icmp6type] = icmp6-parameterproblem
U62: OK : icmp6[icmp6type] = icmp6-echo
U63: OK : icmp6[icmp6type] = icmp6-echoreply
U64: OK : icmp6[icmp6type] = icmp6-multicastlistenerquery
U65: OK : icmp6[icmp6type] = icmp6-multicastlistenerreportv1
U66: OK : icmp6[icmp6type] = icmp6-multicastlistenerdone
U67: OK : icmp6[icmp6type] = icmp6-routersolicit
U68: OK : icmp6[icmp6type] = icmp6-routeradvert
U69: OK : icmp6[icmp6type] = icmp6-neighborsolicit
U70: OK : icmp6[icmp6type] = icmp6-neighboradvert
U71: OK : icmp6[icmp6type] = icmp6-redirect
U72: OK : icmp6[icmp6type] = icmp6-routerrenum
U73: OK : icmp6[icmp6type] = icmp6-nodeinformationquery
U74: OK : icmp6[icmp6type] = icmp6-nodeinformationresponse
U75: OK : icmp6[icmp6type] = icmp6-ineighbordiscoverysolicit
U76: OK : icmp6[icmp6type] = icmp6-ineighbordiscoveryadvert
U77: OK : icmp6[icmp6type] = icmp6-multicastlistenerreportv2
U78: OK : icmp6[icmp6type] = icmp6-homeagentdiscoveryrequest
U79: OK : icmp6[icmp6type] = icmp6-homeagentdiscoveryreply
U80: OK : icmp6[icmp6type] = icmp6-mobileprefixsolicit
U81: OK : icmp6[icmp6type] = icmp6-mobileprefixadvert
U82: OK : icmp6[icmp6type] = icmp6-certpathsolicit
U83: OK : icmp6[icmp6type] = icmp6-certpathadvert
U84: OK : icmp6[icmp6type] = icmp6-multicastrouteradvert
U85: OK : icmp6[icmp6type] = icmp6-multicastroutersolicit
U86: OK : icmp6[icmp6type] = icmp6-multicastrouterterm
U87: OK : port 67 and 68
U88: OK : port 67 and port 68
U89: OK : udp port 67 and 68
U90: OK : udp port 67 and port 68
U91: OK : udp port 67 and udp port 68
U92: OK : tcp dst port ftp or ftp-data or domain
U93: OK : tcp dst port ftp or tcp dst port ftp-data or tcp dst port domain
U94: OK : ip and tcp dst port 80
U95: OK : ip6 and tcp dst port 80
U96: OK : ip[0] + tcp[1] = 1
U97: OK : host tcpdump.org
U98: OK : icmp and ip host 127.0.0.1
U99: OK : ip host 127.0.0.1 and icmp
U100: OK : ip6 net 2000::/3
U101: OK : ip6 host fe80::
U102: OK : ip6 host ff02::1
U103: FAIL (ip && (tcp or udp)) : Expected '(ether proto \ip && ip proto \tcp) || (ether proto \ip && ip proto \udp)' but got 'ether proto \ip && (ip proto \tcp || ip proto \udp)'
U104: FAIL (ip and port 67 and 68) : Expected '((ether proto \ip && ip proto \sctp && sctp src or dst port 67) || (ether proto \ip && ip proto \tcp && tcp src or dst port 67) || (ether proto \ip && ip proto \udp && udp src or dst port 67)) && ((ether proto \ip && ip proto \sctp && sctp src or dst port 68) || (ether proto \ip && ip proto \tcp && tcp src or dst port 68) || (ether proto \ip && ip proto \udp && udp src or dst port 68))' but got 'ether proto \ip && ((ip proto \sctp && sctp src or dst port 67) || (ip proto \tcp && tcp src or dst port 67) || (ip proto \udp && udp src or dst port 67)) && ((ip proto \sctp && sctp src or dst port 68) || (ip proto \tcp && tcp src or dst port 68) || (ip proto \udp && udp src or dst port 68))'
U105: FAIL (tcp[0] = 0 && ((ether proto \ip && ip proto \tcp) || (ether proto \ip6 && ip6 proto \tcp))) : Expected '(ether proto \ip && ip proto \tcp && tcp[0] = 0) || (ether proto \ip6 && ip6 proto \tcp && tcp[0] = 0)' but got '((ether proto \ip && ip proto \tcp && tcp[0] = 0) || (ether proto \ip6 && ip6 proto \tcp && tcp[0] = 0)) && ((ether proto \ip && ip proto \tcp) || (ether proto \ip6 && ip6 proto \tcp))'
U106: OK : ip
U107: OK : tcp or udp
U108: OK : icmp or udp port 53
U109: OK : icmp or udp port 53 or bootpc
